[
    {
        "type": "root",
        "tabs": [
            {
                "type": "tab",
                "id": "tab_1",
                "linkId": "",
                "label": "auto",
                "color": "auto",
                "css": "",
                "layout": "",
                "spacing": 0,
                "default": "",
                "value": "",
                "precision": 0,
                "address": "/tab_1",
                "preArgs": [],
                "target": [],
                "bypass": false,
                "variables": "@{parent.variables}",
                "widgets": [
                    {
                        "type": "push",
                        "top": 0,
                        "left": 0,
                        "id": "get_gui",
                        "linkId": "",
                        "width": 80,
                        "height": 30,
                        "label": "auto",
                        "color": "auto",
                        "css": "",
                        "on": "@{this.id}",
                        "off": 0,
                        "norelease": true,
                        "precision": 2,
                        "address": "/get_gui",
                        "preArgs": [],
                        "target": [
                            "127.0.0.1:9000",
                            "127.0.0.1:8001"
                        ],
                        "bypass": false
                    },
                    {
                        "type": "strip",
                        "widgets": [
                            {
                                "type": "modal",
                                "widgets": [
                                    {
                                        "type": "toggle",
                                        "top": 0,
                                        "left": 0,
                                        "id": "play",
                                        "linkId": "",
                                        "width": 70,
                                        "height": 40,
                                        "label": "auto",
                                        "color": "auto",
                                        "css": "",
                                        "doubleTap": false,
                                        "led": false,
                                        "on": 1,
                                        "off": 0,
                                        "default": "",
                                        "value": "",
                                        "precision": 0,
                                        "address": "@{parent.address}/player/enable",
                                        "preArgs": [],
                                        "target": [],
                                        "bypass": false
                                    },
                                    {
                                        "type": "knob",
                                        "top": 40,
                                        "left": 0,
                                        "id": "file_index",
                                        "linkId": "",
                                        "width": 70,
                                        "height": 110,
                                        "label": "auto",
                                        "color": "auto",
                                        "css": "",
                                        "pips": true,
                                        "input": true,
                                        "dashed": false,
                                        "angle": 270,
                                        "snap": false,
                                        "spring": false,
                                        "doubleTap": false,
                                        "range": {
                                            "min": -9,
                                            "max": 9
                                        },
                                        "logScale": false,
                                        "unit": "",
                                        "origin": "auto",
                                        "default": "",
                                        "value": "",
                                        "precision": 0,
                                        "address": "@{parent.address}/player/@{this.id}",
                                        "touchAddress": "",
                                        "preArgs": [],
                                        "target": [],
                                        "bypass": false
                                    },
                                    {
                                        "type": "knob",
                                        "top": 150,
                                        "left": 0,
                                        "id": "pan",
                                        "linkId": "",
                                        "width": 70,
                                        "height": 110,
                                        "label": "auto",
                                        "color": "auto",
                                        "css": "",
                                        "pips": true,
                                        "input": true,
                                        "dashed": false,
                                        "angle": 270,
                                        "snap": false,
                                        "spring": false,
                                        "doubleTap": false,
                                        "range": {
                                            "min": -1,
                                            "max": 1
                                        },
                                        "logScale": false,
                                        "unit": "",
                                        "origin": "auto",
                                        "default": "",
                                        "value": "",
                                        "precision": 2,
                                        "address": "@{parent.address}/player/@{this.id}",
                                        "touchAddress": "",
                                        "preArgs": [],
                                        "target": [],
                                        "bypass": false
                                    },
                                    {
                                        "type": "fader",
                                        "top": 120,
                                        "left": 80,
                                        "id": "position",
                                        "linkId": "",
                                        "width": 240,
                                        "height": 50,
                                        "label": "auto",
                                        "color": "auto",
                                        "css": "",
                                        "horizontal": true,
                                        "alignRight": false,
                                        "pips": true,
                                        "input": true,
                                        "meter": false,
                                        "compact": true,
                                        "dashed": false,
                                        "snap": false,
                                        "spring": false,
                                        "doubleTap": false,
                                        "range": {
                                            "min": 0,
                                            "max": 1
                                        },
                                        "logScale": false,
                                        "unit": "",
                                        "origin": "auto",
                                        "default": "",
                                        "value": "",
                                        "precision": 8,
                                        "address": "@{parent.address}/looper/@{this.id}",
                                        "touchAddress": "",
                                        "meterAddress": "",
                                        "preArgs": [],
                                        "target": [],
                                        "bypass": false
                                    },
                                    {
                                        "type": "fader",
                                        "top": 180,
                                        "left": 80,
                                        "id": "player_loop_in",
                                        "linkId": "",
                                        "width": 240,
                                        "height": 50,
                                        "label": "auto",
                                        "color": "auto",
                                        "css": "",
                                        "horizontal": true,
                                        "alignRight": false,
                                        "pips": true,
                                        "input": true,
                                        "meter": false,
                                        "compact": true,
                                        "dashed": false,
                                        "snap": false,
                                        "spring": false,
                                        "doubleTap": false,
                                        "range": {
                                            "min": 0,
                                            "max": 1
                                        },
                                        "logScale": false,
                                        "unit": "",
                                        "origin": "auto",
                                        "default": "",
                                        "value": "",
                                        "precision": 8,
                                        "address": "@{parent.address}/looper/@{this.id}",
                                        "touchAddress": "",
                                        "meterAddress": "",
                                        "preArgs": [],
                                        "target": [],
                                        "bypass": false
                                    },
                                    {
                                        "type": "fader",
                                        "top": 240,
                                        "left": 80,
                                        "id": "player_loop_out",
                                        "linkId": "",
                                        "width": 240,
                                        "height": 50,
                                        "label": "auto",
                                        "color": "auto",
                                        "css": "",
                                        "horizontal": true,
                                        "alignRight": false,
                                        "pips": true,
                                        "input": true,
                                        "meter": false,
                                        "compact": true,
                                        "dashed": false,
                                        "snap": false,
                                        "spring": false,
                                        "doubleTap": false,
                                        "range": {
                                            "min": 0,
                                            "max": 1
                                        },
                                        "logScale": false,
                                        "unit": "",
                                        "origin": "auto",
                                        "default": "",
                                        "value": "",
                                        "precision": 8,
                                        "address": "@{parent.address}/looper/@{this.id}",
                                        "touchAddress": "",
                                        "meterAddress": "",
                                        "preArgs": [],
                                        "target": [],
                                        "bypass": false
                                    },
                                    {
                                        "type": "fader",
                                        "top": 60,
                                        "left": 80,
                                        "id": "speed",
                                        "linkId": "",
                                        "width": 240,
                                        "height": 50,
                                        "label": "auto",
                                        "color": "auto",
                                        "css": "",
                                        "horizontal": true,
                                        "alignRight": false,
                                        "pips": true,
                                        "input": true,
                                        "meter": false,
                                        "compact": true,
                                        "dashed": false,
                                        "snap": false,
                                        "spring": false,
                                        "doubleTap": false,
                                        "range": {
                                            "min": -2,
                                            "max": 2
                                        },
                                        "logScale": false,
                                        "unit": "",
                                        "origin": "auto",
                                        "default": "",
                                        "value": "",
                                        "precision": 8,
                                        "address": "@{parent.address}/looper/@{this.id}",
                                        "touchAddress": "",
                                        "meterAddress": "",
                                        "preArgs": [],
                                        "target": [],
                                        "bypass": false
                                    },
                                    {
                                        "type": "fader",
                                        "top": -10,
                                        "left": 80,
                                        "id": "volume",
                                        "linkId": "",
                                        "width": 240,
                                        "height": 70,
                                        "label": "auto",
                                        "color": "auto",
                                        "css": "",
                                        "horizontal": true,
                                        "alignRight": false,
                                        "pips": true,
                                        "input": true,
                                        "meter": false,
                                        "compact": true,
                                        "dashed": false,
                                        "snap": false,
                                        "spring": false,
                                        "doubleTap": false,
                                        "range": {
                                            "min": 0,
                                            "max": 1.25
                                        },
                                        "logScale": true,
                                        "unit": "",
                                        "origin": "auto",
                                        "default": "",
                                        "value": "",
                                        "precision": 2,
                                        "address": "@{parent.address}/player/@{this.id}",
                                        "touchAddress": "",
                                        "meterAddress": "",
                                        "preArgs": [],
                                        "target": [],
                                        "bypass": false
                                    },
                                    {
                                        "type": "knob",
                                        "top": -10,
                                        "left": 320,
                                        "id": "hue",
                                        "linkId": "",
                                        "width": 70,
                                        "height": 110,
                                        "label": "auto",
                                        "color": "auto",
                                        "css": "",
                                        "pips": true,
                                        "input": true,
                                        "dashed": false,
                                        "angle": 360,
                                        "snap": false,
                                        "spring": false,
                                        "doubleTap": false,
                                        "range": {
                                            "min": 0,
                                            "max": 360
                                        },
                                        "logScale": false,
                                        "unit": "",
                                        "origin": "auto",
                                        "default": "",
                                        "value": "",
                                        "precision": 2,
                                        "address": "@{parent.address}/graphe/set/@{this.id}",
                                        "touchAddress": "",
                                        "preArgs": [],
                                        "target": [],
                                        "bypass": false
                                    },
                                    {
                                        "type": "knob",
                                        "top": -10,
                                        "left": 380,
                                        "id": "sat",
                                        "linkId": "",
                                        "width": 70,
                                        "height": 110,
                                        "label": "auto",
                                        "color": "auto",
                                        "css": "",
                                        "pips": true,
                                        "input": true,
                                        "dashed": false,
                                        "angle": 270,
                                        "snap": false,
                                        "spring": false,
                                        "doubleTap": false,
                                        "range": {
                                            "min": 0,
                                            "max": 1
                                        },
                                        "logScale": false,
                                        "unit": "",
                                        "origin": "auto",
                                        "default": "",
                                        "value": "",
                                        "precision": 2,
                                        "address": "@{parent.address}/graphe/set/@{this.id}",
                                        "touchAddress": "",
                                        "preArgs": [],
                                        "target": [],
                                        "bypass": false
                                    },
                                    {
                                        "type": "knob",
                                        "top": -10,
                                        "left": 440,
                                        "id": "bright",
                                        "linkId": "",
                                        "width": 70,
                                        "height": 110,
                                        "label": "auto",
                                        "color": "auto",
                                        "css": "",
                                        "pips": true,
                                        "input": true,
                                        "dashed": false,
                                        "angle": 270,
                                        "snap": false,
                                        "spring": false,
                                        "doubleTap": false,
                                        "range": {
                                            "min": 0,
                                            "max": 1
                                        },
                                        "logScale": false,
                                        "unit": "",
                                        "origin": "auto",
                                        "default": "",
                                        "value": "",
                                        "precision": 2,
                                        "address": "@{parent.address}/graphe/set/@{this.id}",
                                        "touchAddress": "",
                                        "preArgs": [],
                                        "target": [],
                                        "bypass": false
                                    }
                                ],
                                "label": "auto",
                                "id": "sampler_0",
                                "linkId": "",
                                "height": 30,
                                "color": "auto",
                                "css": "",
                                "doubleTap": false,
                                "popupLabel": "",
                                "popupWidth": "100%",
                                "popupHeight": "80%",
                                "popupLeft": "auto",
                                "popupTop": "auto",
                                "layout": "",
                                "spacing": 0,
                                "default": "",
                                "value": "",
                                "precision": 0,
                                "address": "/oscillographe/audio_io/@{this.id}",
                                "preArgs": [],
                                "target": [],
                                "bypass": false,
                                "variables": "@{parent.variables}",
                                "scroll": true
                            }
                        ],
                        "label": false,
                        "top": 0,
                        "left": 80,
                        "id": "strip_1",
                        "linkId": "",
                        "width": "auto",
                        "height": "auto",
                        "color": "auto",
                        "css": "",
                        "scroll": true,
                        "horizontal": false,
                        "stretch": false,
                        "border": true,
                        "spacing": 0,
                        "variables": "@{parent.variables}",
                        "_geometry": "geometry",
                        "_style": "style",
                        "_panel": "panel",
                        "layout": "",
                        "_value": "value (tab selection)",
                        "default": "",
                        "value": "",
                        "_osc": "osc (tab selection)",
                        "precision": 0,
                        "preArgs": [],
                        "target": [],
                        "bypass": false,
                        "_children": "children",
                        "tabs": []
                    }
                ],
                "tabs": [],
                "scroll": true
            }
        ],
        "id": "root",
        "linkId": "",
        "color": "auto",
        "css": "",
        "default": "",
        "value": "",
        "precision": 0,
        "address": "/root",
        "preArgs": [],
        "target": [],
        "bypass": false,
        "variables": {},
        "scroll": true,
        "label": false
    }
]